# Prepare data from csv file

    Code
      vvplot$table
    Output
      # A tibble: 38 x 4
         .sample group nrvalid meanvalid
         <fct>   <chr>   <int>     <dbl>
       1 HCC_1   HCC      3013     0.720
       2 HCC_2   HCC      2566     0.613
       3 HCC_3   HCC      3150     0.753
       4 HCC_4   HCC      2588     0.618
       5 HCC_5   HCC      2368     0.566
       6 HCC_6   HCC      2722     0.650
       7 HCC_7   HCC      2813     0.672
       8 HCC_8   HCC      2609     0.623
       9 HCC_9   HCC      2811     0.672
      10 HCC_10  HCC      2943     0.703
      # i 28 more rows
