…
---

    Code
      prepData[["D_long"]]
    Output
      # A tibble: 135 x 4
         name     value group  sample
         <chr>    <dbl> <fct>  <chr> 
       1 state1_1    NA state1 1     
       2 state1_2    NA state1 2     
       3 state1_3    NA state1 3     
       4 state2_1    NA state2 1     
       5 state2_2    NA state2 2     
       6 state2_3    NA state2 3     
       7 state3_1    NA state3 1     
       8 state3_2    NA state3 2     
       9 state3_3    NA state3 3     
      10 state1_1    NA state1 1     
      # i 125 more rows
…
---

    Code
      prepData[["D_long"]]
    Output
      # A tibble: 135 x 4
         name     value group sample
         <chr>    <dbl> <lgl> <lgl> 
       1 state1_1  25.2 NA    NA    
       2 state1_2  NA   NA    NA    
       3 state1_3  25.1 NA    NA    
       4 state2_1  25.4 NA    NA    
       5 state2_2  25.3 NA    NA    
       6 state2_3  25.2 NA    NA    
       7 state3_1  25.4 NA    NA    
       8 state3_2  25.3 NA    NA    
       9 state3_3  25.3 NA    NA    
      10 state1_1  27.9 NA    NA    
      # i 125 more rows
